3.2270996598526835e-05
4.4657004764303565e-05
4.303199239075184e-05
4.5626991777680814e-05
5.00919995829463e-05
5.243299528956413e-05
5.559300188906491e-05
5.299199256114662e-05
5.965700256638229e-05
5.878099182154983e-05
6.561500777024776e-05
5.718000466004014e-05
5.7523997384123504e-05
5.482599954120815e-05
6.722199032083154e-05
5.954799416940659e-05
5.9783997130580246e-05
6.240099901333451e-05
5.8299992815591395e-05
6.022601155564189e-05
6.468700303230435e-05
5.753399454988539e-05
5.918400711379945e-05
5.9986006817780435e-05
7.960099901538342e-05
0.00010214099893346429
0.00011278499732725322
8.960100240074098e-05
7.083399395924062e-05
6.659000064246356e-05
6.899599975440651e-05
6.416899850592017e-05
6.389299232978374e-05
6.555300205945969e-05
6.94110058248043e-05
9.76590090431273e-05
7.074499444570392e-05
6.99439988238737e-05
7.150800956878811e-05
9.407299512531608e-05
7.172500772867352e-05
8.611600787844509e-05
6.67870044708252e-05
0.00010249800106976181
9.229700663127005e-05
8.358500781469047e-05
7.265899330377579e-05
7.596200157422572e-05
7.53539934521541e-05
