%!PS-Adobe-3.0
%%BoundingBox: 0 0 612 792
%%LanguageLevel: 2
%%Creator: Grace-5.1.23
%%CreationDate: Tue May  2 10:58:19 2017
%%DocumentData: Clean8Bit
%%Orientation: Landscape
%%Pages: 1
%%PageOrder: Ascend
%%Title: skiplist4.dat
%%For: vitor
%%DocumentNeededResources: (atend)
%%EndComments
%%BeginProlog
/PAGE_OFFSET_X 0 def
/PAGE_OFFSET_Y 0 def
/m {moveto} def
/l {lineto} def
/s {stroke} def
/n {newpath} def
/c {closepath} def
/RL {rlineto} def
/SLW {setlinewidth} def
/GS {gsave} def
/GR {grestore} def
/SC {setcolor} def
/SGRY {setgray} def
/SRGB {setrgbcolor} def
/SD {setdash} def
/SLC {setlinecap} def
/SLJ {setlinejoin} def
/SCS {setcolorspace} def
/FFSF {findfont setfont} def
/CC {concat} def
/PXL {n m 0 0 RL s} def
/Color0 {1.0000 1.0000 1.0000} def
/Color1 {0.0000 0.0000 0.0000} def
/Color2 {1.0000 0.0000 0.0000} def
/Color3 {0.0000 1.0000 0.0000} def
/Color4 {0.0000 0.0000 1.0000} def
/Color5 {1.0000 1.0000 0.0000} def
/Color6 {0.7373 0.5608 0.5608} def
/Color7 {0.8627 0.8627 0.8627} def
/Color8 {0.5804 0.0000 0.8275} def
/Color9 {0.0000 1.0000 1.0000} def
/Color10 {1.0000 0.0000 1.0000} def
/Color11 {1.0000 0.6471 0.0000} def
/Color12 {0.4471 0.1294 0.7373} def
/Color13 {0.4039 0.0275 0.2824} def
/Color14 {0.2510 0.8784 0.8157} def
/Color15 {0.0000 0.5451 0.0000} def
/Color16 {0.7529 0.7529 0.7529} def
/Color17 {0.5059 0.5059 0.5059} def
/Color18 {0.2588 0.2588 0.2588} def
/PTRN {
 /pat_bits exch def 
 <<
  /PaintType 2
  /PatternType 1 /TilingType 1
  /BBox[0 0 16 16]
  /XStep 16 /YStep 16
  /PaintProc {
   pop
   16 16 true [-1 0 0 -1 16 16] pat_bits imagemask
  }
 >>
 [0.0016 0 0 0.0016 0 0]
 makepattern
} def
/Pattern0 {<0000000000000000000000000000000000000000000000000000000000000000> PTRN} bind def
/Pattern1 {<ffffffffffffffffffffffffffffffffffffffffffffffffffffffffffffffff> PTRN} bind def
/Pattern2 {<eeeeffffbbbbffffeeeeffffbbbbffffeeeeffffbbbbffffeeeeffffbbbbffff> PTRN} bind def
/Pattern3 {<eeeebbbbeeeebbbbeeeebbbbeeeebbbbeeeebbbbeeeebbbbeeeebbbbeeeebbbb> PTRN} bind def
/Pattern4 {<5555aaaa5555aaaa5555aaaa5555aaaa5555aaaa5555aaaa5555aaaa5555aaaa> PTRN} bind def
/Pattern5 {<1111444411114444111144441111444411114444111144441111444411114444> PTRN} bind def
/Pattern6 {<1111000044440000111100004444000011110000444400001111000044440000> PTRN} bind def
/Pattern7 {<1010000000000000010100000000000010100000000000000101000000000000> PTRN} bind def
/Pattern8 {<0000000000000000000000000000000000000000000000000000000000000000> PTRN} bind def
/Pattern9 {<1e1e0f0f8787c3c3e1e1f0f078783c3c1e1e0f0f8787c3c3e1e1f0f078783c3c> PTRN} bind def
/Pattern10 {<7878f0f0e1e1c3c387870f0f1e1e3c3c7878f0f0e1e1c3c387870f0f1e1e3c3c> PTRN} bind def
/Pattern11 {<3333333333333333333333333333333333333333333333333333333333333333> PTRN} bind def
/Pattern12 {<ffffffff00000000ffffffff00000000ffffffff00000000ffffffff00000000> PTRN} bind def
/Pattern13 {<8181424224241818181824244242818181814242242418181818242442428181> PTRN} bind def
/Pattern14 {<8080404020201010080804040202010180804040202010100808040402020101> PTRN} bind def
/Pattern15 {<0101020204040808101020204040808001010202040408081010202040408080> PTRN} bind def
/Pattern16 {<2222222222222222222222222222222222222222222222222222222222222222> PTRN} bind def
/Pattern17 {<0000ffff000000000000ffff000000000000ffff000000000000ffff00000000> PTRN} bind def
/Pattern18 {<2222ffff222222222222ffff222222222222ffff222222222222ffff22222222> PTRN} bind def
/Pattern19 {<ffffffff33333333ffffffff33333333ffffffff33333333ffffffff33333333> PTRN} bind def
/Pattern20 {<0f0f0f0f0f0f0f0ff0f0f0f0f0f0f0f00f0f0f0f0f0f0f0ff0f0f0f0f0f0f0f0> PTRN} bind def
/Pattern21 {<ff00ff00ff00ff00ff00ff00ff00ff0000ff00ff00ff00ff00ff00ff00ff00ff> PTRN} bind def
/Pattern22 {<8001800180018001800180018001ffffffff8001800180018001800180018001> PTRN} bind def
/Pattern23 {<c003c003c003c003c003c003ffffffffffffffffc003c003c003c003c003c003> PTRN} bind def
/Pattern24 {<040404040404ffff404040404040ffff040404040404ffff404040404040ffff> PTRN} bind def
/Pattern25 {<180018001800180018001800ffffffff001800180018001800180018ffffffff> PTRN} bind def
/Pattern26 {<1111b8b87c7c3a3a1111a3a3c7c78b8b1111b8b87c7c3a3a1111a3a3c7c78b8b> PTRN} bind def
/Pattern27 {<101010102828c7c70101010182827c7c101010102828c7c70101010182827c7c> PTRN} bind def
/Pattern28 {<1c1c121211112121c1c12121111112121c1c121211112121c1c1212111111212> PTRN} bind def
/Pattern29 {<3e3e414180808080e3e31414080808083e3e414180808080e3e3141408080808> PTRN} bind def
/Pattern30 {<4848888884848383848488884848383848488888848483838484888848483838> PTRN} bind def
/Pattern31 {<03030404080808080c0c12122121c0c003030404080808080c0c12122121c0c0> PTRN} bind def
/ellipsedict 8 dict def
ellipsedict /mtrx matrix put
/EARC {
 ellipsedict begin
  /endangle exch def
  /startangle exch def
  /yrad exch def
  /xrad exch def
  /y exch def
  /x exch def
  /savematrix mtrx currentmatrix def
  x y translate
  xrad yrad scale
  0 0 1 startangle endangle arc
  savematrix setmatrix
 end
} def
/TL {
  /kcomp exch def
  /linewidth exch def
  /offset exch def
  GS
  0 offset rmoveto
  linewidth SLW
  dup stringwidth exch kcomp add exch RL s
  GR
} def
/KINIT
{
 /kvector exch def
 /kid 0 def
} def
/KPROC
{
 pop pop
 kvector kid get
 0 rmoveto
 /kid 1 kid add def
} def
/DefEncoding [
 /.notdef
 /.notdef
 /.notdef
 /.notdef
 /.notdef
 /.notdef
 /.notdef
 /.notdef
 /.notdef
 /.notdef
 /.notdef
 /.notdef
 /.notdef
 /.notdef
 /.notdef
 /.notdef
 /.notdef
 /.notdef
 /.notdef
 /.notdef
 /.notdef
 /.notdef
 /.notdef
 /.notdef
 /.notdef
 /.notdef
 /.notdef
 /.notdef
 /.notdef
 /.notdef
 /.notdef
 /.notdef
 /space
 /exclam
 /quotedbl
 /numbersign
 /dollar
 /percent
 /ampersand
 /quoteright
 /parenleft
 /parenright
 /asterisk
 /plus
 /comma
 /hyphen
 /period
 /slash
 /zero
 /one
 /two
 /three
 /four
 /five
 /six
 /seven
 /eight
 /nine
 /colon
 /semicolon
 /less
 /equal
 /greater
 /question
 /at
 /A
 /B
 /C
 /D
 /E
 /F
 /G
 /H
 /I
 /J
 /K
 /L
 /M
 /N
 /O
 /P
 /Q
 /R
 /S
 /T
 /U
 /V
 /W
 /X
 /Y
 /Z
 /bracketleft
 /backslash
 /bracketright
 /asciicircum
 /underscore
 /grave
 /a
 /b
 /c
 /d
 /e
 /f
 /g
 /h
 /i
 /j
 /k
 /l
 /m
 /n
 /o
 /p
 /q
 /r
 /s
 /t
 /u
 /v
 /w
 /x
 /y
 /z
 /braceleft
 /bar
 /braceright
 /asciitilde
 /.notdef
 /.notdef
 /.notdef
 /.notdef
 /.notdef
 /.notdef
 /.notdef
 /.notdef
 /.notdef
 /.notdef
 /.notdef
 /.notdef
 /.notdef
 /.notdef
 /.notdef
 /.notdef
 /.notdef
 /.notdef
 /.notdef
 /.notdef
 /.notdef
 /.notdef
 /.notdef
 /.notdef
 /.notdef
 /.notdef
 /.notdef
 /.notdef
 /.notdef
 /.notdef
 /.notdef
 /.notdef
 /.notdef
 /space
 /exclamdown
 /cent
 /sterling
 /currency
 /yen
 /brokenbar
 /section
 /dieresis
 /copyright
 /ordfeminine
 /guillemotleft
 /logicalnot
 /hyphen
 /registered
 /macron
 /degree
 /plusminus
 /twosuperior
 /threesuperior
 /acute
 /mu
 /paragraph
 /periodcentered
 /cedilla
 /onesuperior
 /ordmasculine
 /guillemotright
 /onequarter
 /onehalf
 /threequarters
 /questiondown
 /Agrave
 /Aacute
 /Acircumflex
 /Atilde
 /Adieresis
 /Aring
 /AE
 /Ccedilla
 /Egrave
 /Eacute
 /Ecircumflex
 /Edieresis
 /Igrave
 /Iacute
 /Icircumflex
 /Idieresis
 /Eth
 /Ntilde
 /Ograve
 /Oacute
 /Ocircumflex
 /Otilde
 /Odieresis
 /multiply
 /Oslash
 /Ugrave
 /Uacute
 /Ucircumflex
 /Udieresis
 /Yacute
 /Thorn
 /germandbls
 /agrave
 /aacute
 /acircumflex
 /atilde
 /adieresis
 /aring
 /ae
 /ccedilla
 /egrave
 /eacute
 /ecircumflex
 /edieresis
 /igrave
 /iacute
 /icircumflex
 /idieresis
 /eth
 /ntilde
 /ograve
 /oacute
 /ocircumflex
 /otilde
 /odieresis
 /divide
 /oslash
 /ugrave
 /uacute
 /ucircumflex
 /udieresis
 /yacute
 /thorn
 /ydieresis
] def
%%EndProlog
%%BeginSetup
%%EndSetup
%%Page: 1 1
PAGE_OFFSET_X PAGE_OFFSET_Y translate
612.00 612.00 scale
90 rotate
0.0 -1.0 translate
n
0.0000 0.0000 m
0.0000 1.0000 l
1.2941 1.0000 l
1.2941 0.0000 l
c
[/DeviceRGB] SCS
Color0 SC
fill
[/DeviceRGB] SCS
Color1 SC
[] 0 SD
0.0015 SLW
n 0.1520 0.3075 0.0051 0.0051 0 360 EARC s
n 0.1540 0.3336 0.0051 0.0051 0 360 EARC s
n 0.1560 0.3017 0.0051 0.0051 0 360 EARC s
n 0.1580 0.2846 0.0051 0.0051 0 360 EARC s
n 0.1600 0.3029 0.0051 0.0051 0 360 EARC s
n 0.1620 0.2838 0.0051 0.0051 0 360 EARC s
n 0.1640 0.2529 0.0051 0.0051 0 360 EARC s
n 0.1660 0.2505 0.0051 0.0051 0 360 EARC s
n 0.1680 0.2101 0.0051 0.0051 0 360 EARC s
n 0.1700 0.2755 0.0051 0.0051 0 360 EARC s
n 0.1720 0.3538 0.0051 0.0051 0 360 EARC s
n 0.1740 0.2476 0.0051 0.0051 0 360 EARC s
n 0.1760 0.4118 0.0051 0.0051 0 360 EARC s
n 0.1780 0.4472 0.0051 0.0051 0 360 EARC s
n 0.1800 0.3008 0.0051 0.0051 0 360 EARC s
n 0.1820 0.3636 0.0051 0.0051 0 360 EARC s
n 0.1840 0.4301 0.0051 0.0051 0 360 EARC s
n 0.1860 0.4794 0.0051 0.0051 0 360 EARC s
n 0.1880 0.4208 0.0051 0.0051 0 360 EARC s
n 0.1900 0.4102 0.0051 0.0051 0 360 EARC s
n 0.1920 0.4423 0.0051 0.0051 0 360 EARC s
n 0.1940 0.3988 0.0051 0.0051 0 360 EARC s
n 0.1960 0.4766 0.0051 0.0051 0 360 EARC s
n 0.1980 0.4094 0.0051 0.0051 0 360 EARC s
n 0.2000 0.5108 0.0051 0.0051 0 360 EARC s
n 0.2020 0.3405 0.0051 0.0051 0 360 EARC s
n 0.2040 0.3640 0.0051 0.0051 0 360 EARC s
n 0.2060 0.3466 0.0051 0.0051 0 360 EARC s
n 0.2080 0.4946 0.0051 0.0051 0 360 EARC s
n 0.2100 0.4456 0.0051 0.0051 0 360 EARC s
n 0.2120 0.3206 0.0051 0.0051 0 360 EARC s
n 0.2140 0.4894 0.0051 0.0051 0 360 EARC s
n 0.2160 0.3151 0.0051 0.0051 0 360 EARC s
n 0.2180 0.4397 0.0051 0.0051 0 360 EARC s
n 0.2200 0.4738 0.0051 0.0051 0 360 EARC s
n 0.2220 0.4924 0.0051 0.0051 0 360 EARC s
n 0.2240 0.4648 0.0051 0.0051 0 360 EARC s
n 0.2260 0.4978 0.0051 0.0051 0 360 EARC s
n 0.2280 0.4184 0.0051 0.0051 0 360 EARC s
n 0.2300 0.3280 0.0051 0.0051 0 360 EARC s
n 0.2320 0.4868 0.0051 0.0051 0 360 EARC s
n 0.2340 0.4908 0.0051 0.0051 0 360 EARC s
n 0.2360 0.5247 0.0051 0.0051 0 360 EARC s
n 0.2380 0.4808 0.0051 0.0051 0 360 EARC s
n 0.2400 0.5095 0.0051 0.0051 0 360 EARC s
n 0.2420 0.4332 0.0051 0.0051 0 360 EARC s
n 0.2440 0.4340 0.0051 0.0051 0 360 EARC s
n 0.2460 0.4246 0.0051 0.0051 0 360 EARC s
n 0.2480 0.3342 0.0051 0.0051 0 360 EARC s
n 0.2500 0.4967 0.0051 0.0051 0 360 EARC s
n 0.2520 0.3827 0.0051 0.0051 0 360 EARC s
n 0.2540 0.4417 0.0051 0.0051 0 360 EARC s
n 0.2560 0.4000 0.0051 0.0051 0 360 EARC s
n 0.2580 0.4383 0.0051 0.0051 0 360 EARC s
n 0.2600 0.4187 0.0051 0.0051 0 360 EARC s
n 0.2620 0.4562 0.0051 0.0051 0 360 EARC s
n 0.2640 0.3743 0.0051 0.0051 0 360 EARC s
n 0.2660 0.4210 0.0051 0.0051 0 360 EARC s
n 0.2680 0.4159 0.0051 0.0051 0 360 EARC s
n 0.2700 0.3671 0.0051 0.0051 0 360 EARC s
n 0.2720 0.4184 0.0051 0.0051 0 360 EARC s
n 0.2740 0.4427 0.0051 0.0051 0 360 EARC s
n 0.2760 0.4090 0.0051 0.0051 0 360 EARC s
n 0.2780 0.4433 0.0051 0.0051 0 360 EARC s
n 0.2800 0.5246 0.0051 0.0051 0 360 EARC s
n 0.2820 0.4452 0.0051 0.0051 0 360 EARC s
n 0.2840 0.3599 0.0051 0.0051 0 360 EARC s
n 0.2860 0.4365 0.0051 0.0051 0 360 EARC s
n 0.2880 0.3900 0.0051 0.0051 0 360 EARC s
n 0.2900 0.4344 0.0051 0.0051 0 360 EARC s
n 0.2920 0.5336 0.0051 0.0051 0 360 EARC s
n 0.2940 0.4277 0.0051 0.0051 0 360 EARC s
n 0.2960 0.3567 0.0051 0.0051 0 360 EARC s
n 0.2980 0.4265 0.0051 0.0051 0 360 EARC s
n 0.3000 0.3677 0.0051 0.0051 0 360 EARC s
n 0.3020 0.4143 0.0051 0.0051 0 360 EARC s
n 0.3040 0.4057 0.0051 0.0051 0 360 EARC s
n 0.3060 0.3786 0.0051 0.0051 0 360 EARC s
n 0.3080 0.3627 0.0051 0.0051 0 360 EARC s
n 0.3100 0.3958 0.0051 0.0051 0 360 EARC s
n 0.3120 0.4592 0.0051 0.0051 0 360 EARC s
n 0.3140 0.4687 0.0051 0.0051 0 360 EARC s
n 0.3160 0.4026 0.0051 0.0051 0 360 EARC s
n 0.3180 0.4431 0.0051 0.0051 0 360 EARC s
n 0.3200 0.4094 0.0051 0.0051 0 360 EARC s
n 0.3220 0.3358 0.0051 0.0051 0 360 EARC s
n 0.3240 0.4012 0.0051 0.0051 0 360 EARC s
n 0.3260 0.4327 0.0051 0.0051 0 360 EARC s
n 0.3280 0.4486 0.0051 0.0051 0 360 EARC s
n 0.3300 0.4337 0.0051 0.0051 0 360 EARC s
n 0.3320 0.3526 0.0051 0.0051 0 360 EARC s
n 0.3340 0.4611 0.0051 0.0051 0 360 EARC s
n 0.3360 0.3834 0.0051 0.0051 0 360 EARC s
n 0.3380 0.4094 0.0051 0.0051 0 360 EARC s
n 0.3400 0.4620 0.0051 0.0051 0 360 EARC s
n 0.3420 0.4627 0.0051 0.0051 0 360 EARC s
n 0.3440 0.4366 0.0051 0.0051 0 360 EARC s
n 0.3460 0.5252 0.0051 0.0051 0 360 EARC s
n 0.3480 0.4403 0.0051 0.0051 0 360 EARC s
n 0.3500 0.4263 0.0051 0.0051 0 360 EARC s
n 0.3700 0.4754 0.0051 0.0051 0 360 EARC s
n 0.3900 0.4204 0.0051 0.0051 0 360 EARC s
n 0.4100 0.5933 0.0051 0.0051 0 360 EARC s
n 0.4300 0.5442 0.0051 0.0051 0 360 EARC s
n 0.4500 0.4100 0.0051 0.0051 0 360 EARC s
n 0.4700 0.4341 0.0051 0.0051 0 360 EARC s
n 0.4900 0.5891 0.0051 0.0051 0 360 EARC s
n 0.5100 0.4302 0.0051 0.0051 0 360 EARC s
n 0.5300 0.5675 0.0051 0.0051 0 360 EARC s
n 0.5500 0.6297 0.0051 0.0051 0 360 EARC s
n 0.5700 0.4365 0.0051 0.0051 0 360 EARC s
n 0.5900 0.4393 0.0051 0.0051 0 360 EARC s
n 0.6100 0.6738 0.0051 0.0051 0 360 EARC s
n 0.6300 0.5471 0.0051 0.0051 0 360 EARC s
n 0.6500 0.5503 0.0051 0.0051 0 360 EARC s
n 0.6700 0.4385 0.0051 0.0051 0 360 EARC s
n 0.6900 0.4892 0.0051 0.0051 0 360 EARC s
n 0.7100 0.5738 0.0051 0.0051 0 360 EARC s
n 0.7300 0.4958 0.0051 0.0051 0 360 EARC s
n 0.7500 0.5155 0.0051 0.0051 0 360 EARC s
n 0.7700 0.5093 0.0051 0.0051 0 360 EARC s
n 0.7900 0.6833 0.0051 0.0051 0 360 EARC s
n 0.8100 0.4393 0.0051 0.0051 0 360 EARC s
n 0.8300 0.4388 0.0051 0.0051 0 360 EARC s
n 0.8500 0.5418 0.0051 0.0051 0 360 EARC s
n 0.8700 0.6136 0.0051 0.0051 0 360 EARC s
n 0.8900 0.4946 0.0051 0.0051 0 360 EARC s
n 0.9100 0.6091 0.0051 0.0051 0 360 EARC s
n 0.9300 0.4356 0.0051 0.0051 0 360 EARC s
n 0.9500 0.4718 0.0051 0.0051 0 360 EARC s
n 0.9700 0.7650 0.0051 0.0051 0 360 EARC s
n 0.9900 0.5671 0.0051 0.0051 0 360 EARC s
n 1.0100 0.5975 0.0051 0.0051 0 360 EARC s
n 1.0300 0.6876 0.0051 0.0051 0 360 EARC s
n 1.0500 0.5861 0.0051 0.0051 0 360 EARC s
n 1.0700 0.8123 0.0051 0.0051 0 360 EARC s
n 1.0900 0.5560 0.0051 0.0051 0 360 EARC s
n 1.1100 0.5557 0.0051 0.0051 0 360 EARC s
n 1.1300 0.7779 0.0051 0.0051 0 360 EARC s
0 SLC
0 SLJ
n
0.1500 0.1500 m
1.1500 0.1500 l
s
n
0.1500 0.8500 m
1.1500 0.8500 l
s
n
0.2500 0.1500 m
0.2500 0.1600 l
s
n
0.2500 0.8500 m
0.2500 0.8400 l
s
n
0.4500 0.1500 m
0.4500 0.1600 l
s
n
0.4500 0.8500 m
0.4500 0.8400 l
s
n
0.6500 0.1500 m
0.6500 0.1600 l
s
n
0.6500 0.8500 m
0.6500 0.8400 l
s
n
0.8500 0.1500 m
0.8500 0.1600 l
s
n
0.8500 0.8500 m
0.8500 0.8400 l
s
n
1.0500 0.1500 m
1.0500 0.1600 l
s
n
1.0500 0.8500 m
1.0500 0.8400 l
s
n
0.1500 0.1500 m
0.1500 0.1700 l
s
n
0.1500 0.8500 m
0.1500 0.8300 l
s
n
0.3500 0.1500 m
0.3500 0.1700 l
s
n
0.3500 0.8500 m
0.3500 0.8300 l
s
n
0.5500 0.1500 m
0.5500 0.1700 l
s
n
0.5500 0.8500 m
0.5500 0.8300 l
s
n
0.7500 0.1500 m
0.7500 0.1700 l
s
n
0.7500 0.8500 m
0.7500 0.8300 l
s
n
0.9500 0.1500 m
0.9500 0.1700 l
s
n
0.9500 0.8500 m
0.9500 0.8300 l
s
n
1.1500 0.1500 m
1.1500 0.1700 l
s
n
1.1500 0.8500 m
1.1500 0.8300 l
s
/Times-Roman findfont
dup length dict begin
 {1 index /FID ne {def} {pop pop} ifelse} forall
 /Encoding DefEncoding def
 currentdict
end
/Font42 exch definefont pop
/Font42 FFSF
0.1433 0.1212 m
GS
[0.0280 0.0000 0.0000 0.0280 0 0] CC
(0) show
GR
/Font42 FFSF
0.3153 0.1212 m
GS
[0.0280 0.0000 0.0000 0.0280 0 0] CC
(10000) show
GR
/Font42 FFSF
0.5153 0.1212 m
GS
[0.0280 0.0000 0.0000 0.0280 0 0] CC
(20000) show
GR
/Font42 FFSF
0.7153 0.1212 m
GS
[0.0280 0.0000 0.0000 0.0280 0 0] CC
(30000) show
GR
/Font42 FFSF
0.9153 0.1212 m
GS
[0.0280 0.0000 0.0000 0.0280 0 0] CC
(40000) show
GR
/Font42 FFSF
1.1153 0.1208 m
GS
[0.0280 0.0000 0.0000 0.0280 0 0] CC
(50000) show
GR
/Font42 FFSF
0.5090 0.0912 m
GS
[0.0280 0.0000 0.0000 0.0280 0 0] CC
(Quantidade de elementos) show
GR
n
0.1500 0.1500 m
0.1500 0.8500 l
s
n
1.1500 0.1500 m
1.1500 0.8500 l
s
n
0.1500 0.2083 m
0.1600 0.2083 l
s
n
1.1500 0.2083 m
1.1400 0.2083 l
s
n
0.1500 0.3250 m
0.1600 0.3250 l
s
n
1.1500 0.3250 m
1.1400 0.3250 l
s
n
0.1500 0.4417 m
0.1600 0.4417 l
s
n
1.1500 0.4417 m
1.1400 0.4417 l
s
n
0.1500 0.5583 m
0.1600 0.5583 l
s
n
1.1500 0.5583 m
1.1400 0.5583 l
s
n
0.1500 0.6750 m
0.1600 0.6750 l
s
n
1.1500 0.6750 m
1.1400 0.6750 l
s
n
0.1500 0.7917 m
0.1600 0.7917 l
s
n
1.1500 0.7917 m
1.1400 0.7917 l
s
n
0.1500 0.1500 m
0.1700 0.1500 l
s
n
1.1500 0.1500 m
1.1300 0.1500 l
s
n
0.1500 0.2667 m
0.1700 0.2667 l
s
n
1.1500 0.2667 m
1.1300 0.2667 l
s
n
0.1500 0.3833 m
0.1700 0.3833 l
s
n
1.1500 0.3833 m
1.1300 0.3833 l
s
n
0.1500 0.5000 m
0.1700 0.5000 l
s
n
1.1500 0.5000 m
1.1300 0.5000 l
s
n
0.1500 0.6167 m
0.1700 0.6167 l
s
n
1.1500 0.6167 m
1.1300 0.6167 l
s
n
0.1500 0.7333 m
0.1700 0.7333 l
s
n
1.1500 0.7333 m
1.1300 0.7333 l
s
/Font42 FFSF
0.1267 0.1408 m
GS
[0.0280 0.0000 0.0000 0.0280 0 0] CC
(0) show
GR
/Font42 FFSF
0.0780 0.2573 m
GS
[0.0280 0.0000 0.0000 0.0280 0 0] CC
(5e-05) show
GR
/Font42 FFSF
0.0659 0.3759 m
GS
[0.0280 0.0000 0.0000 0.0280 0 0] CC
(0,0001) show
GR
/Font42 FFSF
0.0510 0.4924 m
GS
[0.0280 0.0000 0.0000 0.0280 0 0] CC
(0,00015) show
GR
/Font42 FFSF
0.0635 0.6092 m
GS
[0.0280 0.0000 0.0000 0.0280 0 0] CC
(0,0002) show
GR
/Font42 FFSF
0.0510 0.7257 m
GS
[0.0280 0.0000 0.0000 0.0280 0 0] CC
(0,00025) show
GR
/Font42 FFSF
0.0347 0.3559 m
GS
[0.0000 0.0280 -0.0280 0.0000 0 0] CC
(Tempo gasto no pior caso) show
GR
n
0.1500 0.1500 m
0.1500 0.8500 l
1.1500 0.8500 l
1.1500 0.1500 l
0.1500 0.1500 l
c
s
/Font42 FFSF
0.4382 0.9190 m
GS
[0.0420 0.0000 0.0000 0.0420 0 0] CC
(Grafico de busca Skiplist) show
GR
showpage
%%PageTrailer
%%Trailer
%%DocumentNeededResources: font Times-Roman
%%EOF
